{
	"info": {
		"_postman_id": "52d132a6-d4c9-417c-8b1e-8cc427487c2f",
		"name": "LetsDiveTimeSuggestion",
		"schema": "https://schema.getpostman.com/json/collection/v2.1.0/collection.json"
	},
	"item": [
		{
			"name": "Users",
			"item": [
				{
					"name": "Add user 1",
					"request": {
						"method": "POST",
						"header": [],
						"body": {
							"mode": "raw",
							"raw": "{\n    \"first_name\": \"tester1\",\n    \"last_name\": \"user1\",\n    \"company\": \"company1\",\n    \"designation\": \"employee\"\n}",
							"options": {
								"raw": {
									"language": "json"
								}
							}
						},
						"url": {
							"raw": "http://0.0.0.0:8000/api/v1/users/",
							"protocol": "http",
							"host": [
								"0",
								"0",
								"0",
								"0"
							],
							"port": "8000",
							"path": [
								"api",
								"v1",
								"users",
								""
							]
						}
					},
					"response": []
				},
				{
					"name": "Update user 1 timing",
					"request": {
						"method": "PUT",
						"header": [],
						"body": {
							"mode": "raw",
							"raw": "{\n    \"start_time\": \"07:30:00\",\n    \"end_time\": \"18:00:00\",\n    \"timezone\": \"Asia/Kolkata\"\n}",
							"options": {
								"raw": {
									"language": "json"
								}
							}
						},
						"url": {
							"raw": "http://0.0.0.0:8000/api/v1/users/1/UserTimingPreferences/",
							"protocol": "http",
							"host": [
								"0",
								"0",
								"0",
								"0"
							],
							"port": "8000",
							"path": [
								"api",
								"v1",
								"users",
								"1",
								"UserTimingPreferences",
								""
							]
						}
					},
					"response": []
				},
				{
					"name": "Get user 1 timing",
					"protocolProfileBehavior": {
						"disableBodyPruning": true
					},
					"request": {
						"method": "GET",
						"header": [],
						"body": {
							"mode": "raw",
							"raw": "{\n    \"start_time\": \"10:00:00\",\n    \"end_time\": \"20:00:00\",\n    \"timezone\": \"Asia/Kolkata\"\n}",
							"options": {
								"raw": {
									"language": "json"
								}
							}
						},
						"url": {
							"raw": "http://0.0.0.0:8000/api/v1/users/1/UserTimingPreferences/",
							"protocol": "http",
							"host": [
								"0",
								"0",
								"0",
								"0"
							],
							"port": "8000",
							"path": [
								"api",
								"v1",
								"users",
								"1",
								"UserTimingPreferences",
								""
							]
						}
					},
					"response": []
				},
				{
					"name": "Add user 2",
					"request": {
						"method": "POST",
						"header": [],
						"body": {
							"mode": "raw",
							"raw": "{\n    \"first_name\": \"tester2\",\n    \"last_name\": \"user2\",\n    \"company\": \"company2\",\n    \"designation\": \"employee\"\n}",
							"options": {
								"raw": {
									"language": "json"
								}
							}
						},
						"url": {
							"raw": "http://0.0.0.0:8000/api/v1/users/",
							"protocol": "http",
							"host": [
								"0",
								"0",
								"0",
								"0"
							],
							"port": "8000",
							"path": [
								"api",
								"v1",
								"users",
								""
							]
						}
					},
					"response": []
				},
				{
					"name": "Update user 2 timing",
					"request": {
						"method": "PUT",
						"header": [],
						"body": {
							"mode": "raw",
							"raw": "{\n    \"start_time\": \"6:00:00\",\n    \"end_time\": \"18:00:00\",\n    \"timezone\": \"Asia/Kolkata\"\n}",
							"options": {
								"raw": {
									"language": "json"
								}
							}
						},
						"url": {
							"raw": "http://0.0.0.0:8000/api/v1/users/2/UserTimingPreferences/",
							"protocol": "http",
							"host": [
								"0",
								"0",
								"0",
								"0"
							],
							"port": "8000",
							"path": [
								"api",
								"v1",
								"users",
								"2",
								"UserTimingPreferences",
								""
							]
						}
					},
					"response": []
				},
				{
					"name": "Get user 2 timing",
					"protocolProfileBehavior": {
						"disableBodyPruning": true
					},
					"request": {
						"method": "GET",
						"header": [],
						"body": {
							"mode": "raw",
							"raw": "{\n    \"start_time\": \"10:00:00\",\n    \"end_time\": \"20:00:00\",\n    \"timezone\": \"Asia/Kolkata\"\n}",
							"options": {
								"raw": {
									"language": "json"
								}
							}
						},
						"url": {
							"raw": "http://0.0.0.0:8000/api/v1/users/1/UserTimingPreferences/",
							"protocol": "http",
							"host": [
								"0",
								"0",
								"0",
								"0"
							],
							"port": "8000",
							"path": [
								"api",
								"v1",
								"users",
								"1",
								"UserTimingPreferences",
								""
							]
						}
					},
					"response": []
				},
				{
					"name": "Add user 3",
					"request": {
						"method": "POST",
						"header": [],
						"body": {
							"mode": "raw",
							"raw": "{\n    \"first_name\": \"tester3\",\n    \"last_name\": \"user3\",\n    \"company\": \"company3\",\n    \"designation\": \"manager\"\n}",
							"options": {
								"raw": {
									"language": "json"
								}
							}
						},
						"url": {
							"raw": "http://0.0.0.0:8000/api/v1/users/",
							"protocol": "http",
							"host": [
								"0",
								"0",
								"0",
								"0"
							],
							"port": "8000",
							"path": [
								"api",
								"v1",
								"users",
								""
							]
						}
					},
					"response": []
				},
				{
					"name": "Update user 3",
					"request": {
						"method": "PUT",
						"header": [],
						"body": {
							"mode": "raw",
							"raw": "{\n    \"first_name\": \"tester3\",\n    \"last_name\": \"user3\",\n    \"company\": \"company3\",\n    \"designation\": \"manager\"\n}",
							"options": {
								"raw": {
									"language": "json"
								}
							}
						},
						"url": {
							"raw": "http://0.0.0.0:8000/api/v1/users/3/",
							"protocol": "http",
							"host": [
								"0",
								"0",
								"0",
								"0"
							],
							"port": "8000",
							"path": [
								"api",
								"v1",
								"users",
								"3",
								""
							]
						}
					},
					"response": []
				},
				{
					"name": "Delete user 3",
					"request": {
						"method": "DELETE",
						"header": [],
						"body": {
							"mode": "raw",
							"raw": "",
							"options": {
								"raw": {
									"language": "json"
								}
							}
						},
						"url": {
							"raw": "http://0.0.0.0:8000/api/v1/users/3/",
							"protocol": "http",
							"host": [
								"0",
								"0",
								"0",
								"0"
							],
							"port": "8000",
							"path": [
								"api",
								"v1",
								"users",
								"3",
								""
							]
						}
					},
					"response": []
				},
				{
					"name": "Get all users",
					"protocolProfileBehavior": {
						"disableBodyPruning": true
					},
					"request": {
						"method": "GET",
						"header": [],
						"body": {
							"mode": "raw",
							"raw": "",
							"options": {
								"raw": {
									"language": "json"
								}
							}
						},
						"url": {
							"raw": "http://0.0.0.0:8000/api/v1/users/?format=json",
							"protocol": "http",
							"host": [
								"0",
								"0",
								"0",
								"0"
							],
							"port": "8000",
							"path": [
								"api",
								"v1",
								"users",
								""
							],
							"query": [
								{
									"key": "format",
									"value": "json"
								}
							]
						}
					},
					"response": []
				}
			]
		},
		{
			"name": "Suggested Timing",
			"item": [
				{
					"name": "Suggested timing",
					"request": {
						"method": "POST",
						"header": [],
						"body": {
							"mode": "raw",
							"raw": "{\n   \"1\":{\n      \"calendars\":{\n         \"primary\":{\n            \"busy\":[\n               {\n                  \"start\":\"2022-06-04T08:00:00+05:30\",\n                  \"end\":\"2022-06-04T09:00:00+05:30\"\n               },\n               {\n                  \"start\":\"2022-06-04T10:00:00+05:30\",\n                  \"end\":\"2022-06-04T11:00:00+05:30\"\n               }\n            ]\n         }\n      }\n   },\n   \"2\":{\n      \"calendars\":{\n         \"primary\":{\n            \"busy\":[\n               {\n                  \"start\":\"2022-06-04T08:00:00+05:30\",\n                  \"end\":\"2022-06-04T09:00:00+05:30\"\n               },\n               {\n                  \"start\":\"2022-06-04T10:00:00+05:30\",\n                  \"end\":\"2022-06-04T11:00:00+05:30\"\n               }\n            ]\n         }\n      }\n   }\n}\n",
							"options": {
								"raw": {
									"language": "json"
								}
							}
						},
						"url": {
							"raw": "http://127.0.0.1:8080/api/v1/suggested_time/?users=1,2&duration_mins=30&count=3",
							"protocol": "http",
							"host": [
								"127",
								"0",
								"0",
								"1"
							],
							"port": "8080",
							"path": [
								"api",
								"v1",
								"suggested_time",
								""
							],
							"query": [
								{
									"key": "users",
									"value": "1,2"
								},
								{
									"key": "duration_mins",
									"value": "30"
								},
								{
									"key": "count",
									"value": "3"
								}
							]
						}
					},
					"response": []
				}
			]
		},
		{
			"name": "Health Check",
			"protocolProfileBehavior": {
				"disableBodyPruning": true
			},
			"request": {
				"method": "GET",
				"header": [],
				"body": {
					"mode": "raw",
					"raw": "",
					"options": {
						"raw": {
							"language": "json"
						}
					}
				},
				"url": {
					"raw": "http://0.0.0.0:8000/api/v1/health-check",
					"protocol": "http",
					"host": [
						"0",
						"0",
						"0",
						"0"
					],
					"port": "8000",
					"path": [
						"api",
						"v1",
						"health-check"
					]
				}
			},
			"response": []
		}
	]
}